Ionel;Pacuraru;1234567890876;ASISTENT;2500;0
Mihai;Dumitrescu;1244567890876;LECTURER;2500;1
Ionela;Ionescu;1235567890876;LECTURER;2500;2
Mihaela;Pacuraru;1234567890876;ASISTENT;2600;3
Vasile;Georgescu;1234567890876;TEACHER;2700;4
Marin;Puscas;1234567890876;TEACHER;2800;5
Ana;Pop;1234567891234;ASISTENT;100;6
Con;Lor;1234567891234;ASISTENT;101;7
Costi;Ionica;1234567891234;CONFERENTIAR;99;8
Ana;Ionescu;1234567891234;ASISTENT;1000;9
